metric,f1-score,location,precision,recall
0,0.7860643321749978,Casa,0.8321856428638807,0.7447868298860278
1,0.7840007095029045,Casa,0.8257052120306371,0.7463064584212749
2,0.7848832045474733,Casa,0.8279771385739717,0.7460531869987337
3,0.7671035969745713,Deslocamento,0.6732143929837208,0.8914253897550112
4,0.7649117990253276,Deslocamento,0.6727031268863938,0.8864142538975501
5,0.7647988999656239,Deslocamento,0.6734471485652016,0.8848234171174038
6,0.04708158658497259,Outro,0.5407407407407407,0.024612272420768713
7,0.04029899252518687,Outro,0.5585585585585585,0.020903573836817263
8,0.06649778340721976,Outro,0.546875,0.035401213755900204
