metric,Casa,Deslocamento,Outro,accuracy,epochs,tests
f1-score,"[0.7841001170433061, 0.7874449828835637, 0.782542998088974, 0.7843260188087775, 0.7852062588904694, 0.785307212822796, 0.7848112615439792, 0.7847184501176895, 0.786482199506521, 0.7889384478144513]","[0.7669668649107901, 0.7660418661923656, 0.7634871794871794, 0.7659690318189553, 0.7645027860390389, 0.7648064560251675, 0.7652849211485404, 0.7670187991494819, 0.764362858424485, 0.7672569693247347]","[0.060121522225775506, 0.025024695423114918, 0.01857379767827529, 0.03605375286791216, 0.020550215445807093, 0.033964728935336384, 0.05159625927120283, 0.034154351395730705, 0.045969569439948205, 0.027640671273445216]","[0.7335573165832816, 0.7337399116240003, 0.7303071248584888, 0.732790417412263, 0.7320235182412446, 0.7323521893145383, 0.7328269364204069, 0.7334112405507066, 0.7330095314611255, 0.7350911149253186]",6,10
precision,"[0.8399074163371588, 0.8317054845980466, 0.8262012012012012, 0.8351931330472103, 0.8292179138109098, 0.8308054639660857, 0.8367268903546506, 0.8459061188640578, 0.8225048382637545, 0.8363120567375887]","[0.6695543820091379, 0.6719875180028805, 0.6695047367789903, 0.6693629929221436, 0.670343504586056, 0.6707653550863724, 0.6692083159587776, 0.6661781086943777, 0.6749954293375586, 0.6718255153869137]","[0.5838509316770186, 0.5352112676056338, 0.5714285714285714, 0.6470588235294118, 0.6078431372549019, 0.5416666666666666, 0.5925925925925926, 0.6582278481012658, 0.5772357723577236, 0.5753424657534246]","[0.7335573165832816, 0.7337399116240003, 0.7303071248584888, 0.732790417412263, 0.7320235182412446, 0.7323521893145383, 0.7328269364204069, 0.7334112405507066, 0.7330095314611255, 0.7350911149253186]",6,10
recall,"[0.7352469396369776, 0.7476572393414943, 0.743267201350781, 0.7392992823976361, 0.7456310679611651, 0.7445335584634867, 0.7389615871675813, 0.7317855635289151, 0.753482482059941, 0.7466441536513296]","[0.8975501113585747, 0.8907095132039453, 0.8881641743557112, 0.895163856188355, 0.8894368437798282, 0.8895163856188355, 0.8935730194082088, 0.9038339166401527, 0.8810054088450525, 0.8942888959592746]","[0.03169251517194875, 0.012811867835468645, 0.009440323668240054, 0.018543492919757248, 0.010451786918408631, 0.01753202966958867, 0.026972353337828724, 0.01753202966958867, 0.023937963587322995, 0.014160485502360081]","[0.7335573165832816, 0.7337399116240003, 0.7303071248584888, 0.732790417412263, 0.7320235182412446, 0.7323521893145383, 0.7328269364204069, 0.7334112405507066, 0.7330095314611255, 0.7350911149253186]",6,10
