metric,f1-score,location,precision,recall
0,0.0462962962962963,Casa,0.46875,0.024350649350649352
1,0.8244243561316731,Deslocamento,0.7238095238095238,0.9575277337559429
2,0.24174780337212062,Outro,0.41181229773462785,0.1710924369747899
