metric,Casa,Deslocamento,Outro,accuracy,epochs,tests
f1-score,"[0.16746235769372017, 0.1911504424778761, 0.19295122819508723, 0.16746235769372017, 0.17002565042139978, 0.13671274961597543, 0.17251461988304093, 0.19858156028368792, 0.18409742120343836, 0.163946587537092]","[0.8513495633765547, 0.8515426497277677, 0.8510511108897082, 0.8506364359586316, 0.8513094531301536, 0.8505442874631902, 0.8517881932967541, 0.8516986999239141, 0.8495983935742972, 0.851204441066649]","[0.17600550017188038, 0.13606437454279444, 0.18885869565217392, 0.19038008745375043, 0.1561945331913383, 0.2028317418505104, 0.17118997912317327, 0.15701598579040854, 0.22807017543859648, 0.17624784853700518]","[0.7446464421146554, 0.7449810394824894, 0.7451483381664065, 0.7440330136069596, 0.7448695070265448, 0.7438657149230427, 0.7454271693062682, 0.7458175329020745, 0.7424715592237341, 0.7448695070265448]",8,10
precision,"[0.5364705882352941, 0.5123339658444023, 0.5303326810176126, 0.5364705882352941, 0.5382830626450116, 0.5816993464052288, 0.5388127853881278, 0.5363984674329502, 0.520242914979757, 0.5552763819095478]","[0.7568664353349409, 0.755621925509487, 0.7589740552067291, 0.7574827321565618, 0.7551641406752881, 0.756325762033659, 0.7568281938325991, 0.757235294117647, 0.7622965587652393, 0.7561347892450393]","[0.5079365079365079, 0.5653495440729484, 0.5157699443413729, 0.4982394366197183, 0.5339805825242718, 0.4873417721518987, 0.5245202558635395, 0.5390243902439025, 0.4625158831003812, 0.512]","[0.7446464421146554, 0.7449810394824894, 0.7451483381664065, 0.7440330136069596, 0.7448695070265448, 0.7438657149230427, 0.7454271693062682, 0.7458175329020745, 0.7424715592237341, 0.7448695070265448]",8,10
recall,"[0.09921671018276762, 0.1174934725848564, 0.11792863359442994, 0.09921671018276762, 0.10095735422106179, 0.07745865970409051, 0.10269799825935597, 0.12184508268059181, 0.11183637946040034, 0.09617058311575283]","[0.9727870587345983, 0.9753571698541084, 0.968553934537758, 0.9699145816010281, 0.9755083528611385, 0.9715775946783581, 0.9739965227908383, 0.9730894247486582, 0.9594829541159574, 0.9736185652732633]","[0.10644490644490645, 0.07733887733887734, 0.1155925155925156, 0.11767151767151768, 0.09147609147609148, 0.12806652806652807, 0.10228690228690229, 0.0918918918918919, 0.15135135135135136, 0.10644490644490645]","[0.7446464421146554, 0.7449810394824894, 0.7451483381664065, 0.7440330136069596, 0.7448695070265448, 0.7438657149230427, 0.7454271693062682, 0.7458175329020745, 0.7424715592237341, 0.7448695070265448]",8,10
