metric,Casa,Deslocamento,Outro,accuracy,epochs,tests
f1-score,[0.784113671407779],[0.7394880167655624],[0.32140453219654475],[0.7137524070551821],8,1
precision,[0.819704730340464],[0.7114789458876489],[0.32538330494037476],[0.7137524070551821],8,1
recall,[0.7514846835897577],[0.7697927500570761],[0.3175218885071484],[0.7137524070551821],8,1
