metric,f1-score,location,precision,recall
0,0.78330658105939,Casa,0.8163685497361987,0.7528183220600451
1,0.7402692502675603,Deslocamento,0.6657548125633233,0.8335659013066091
2,0.2044972422571065,Outro,0.4697855750487329,0.1306941431670282
