metric,Casa,Deslocamento,Outro,accuracy,epochs,tests
f1-score,"[0.799768071124855, 0.7946641257741782, 0.798406374501992, 0.7919197433972566, 0.7911388023537557]","[0.7628712608256734, 0.768693867077239, 0.768015170670038, 0.7653276955602536, 0.7691755169052384]","[0.061068702290076333, 0.042364532019704436, 0.05820610687022901, 0.015825914935707223, 0.020568070519098924]","[0.7406632147185194, 0.7385108263367212, 0.7395130049806309, 0.7341133414661195, 0.7355050308521874]",10,5
precision,"[0.8748414376321353, 0.8654017195375037, 0.8435526869650625, 0.8626226583407671, 0.852326968973747]","[0.656335710367526, 0.6650976909413855, 0.6733789026417882, 0.658065088232686, 0.6663111111111111]","[0.49586776859504134, 0.4387755102040816, 0.5213675213675214, 0.5161290322580645, 0.6]","[0.7406632147185194, 0.7385108263367212, 0.7395130049806309, 0.7341133414661195, 0.7355050308521874]",10,5
recall,"[0.736561053755785, 0.7346168365420913, 0.7578469683600151, 0.7319288507632143, 0.7381475261594109]","[0.9106938982620829, 0.910516717325228, 0.8936013728855111, 0.9143666830951207, 0.9095983497148404]","[0.03253796095444685, 0.022256728778467908, 0.030823648307225872, 0.00803616273229533, 0.01046337817638266]","[0.7406632147185194, 0.7385108263367212, 0.7395130049806309, 0.7341133414661195, 0.7355050308521874]",10,5
