metric,f1-score,location,precision,recall
0,0.16674792784007803,Casa,0.5245398773006135,0.09913043478260869
1,0.2706964520367937,Casa,0.4881516587677725,0.18727272727272729
2,0.2769739561802398,Casa,0.4345006485084306,0.2032766990291262
3,0.21889616463985034,Casa,0.444022770398482,0.1452513966480447
4,0.24745624745624747,Casa,0.39947437582128775,0.1792452830188679
5,0.813671562082777,Deslocamento,0.7308836227573635,0.9176102144061672
6,0.8156566997716288,Deslocamento,0.7249126781837062,0.9323700825643516
7,0.8157669237360754,Deslocamento,0.7331536388140162,0.9193626267503622
8,0.8178296630405942,Deslocamento,0.7283553875236295,0.9323653962492437
9,0.8131502735171082,Deslocamento,0.7232398397252433,0.9285889269965704
10,0.31282051282051276,Outro,0.4070058381984987,0.2540343571056741
11,0.2476190476190476,Outro,0.48633093525179855,0.16609336609336608
12,0.25899814471243043,Outro,0.47547683923705725,0.17797042325344212
13,0.2623671674606083,Outro,0.4779706275033378,0.1808080808080808
14,0.2312871287128713,Outro,0.51138353765324,0.14943705220061412
